\relax 
\providecommand\hyper@newdestlabel[2]{}
\providecommand\HyperFirstAtBeginDocument{\AtBeginDocument}
\HyperFirstAtBeginDocument{\ifx\hyper@anchor\@undefined
\global\let\oldcontentsline\contentsline
\gdef\contentsline#1#2#3#4{\oldcontentsline{#1}{#2}{#3}}
\global\let\oldnewlabel\newlabel
\gdef\newlabel#1#2{\newlabelxx{#1}#2}
\gdef\newlabelxx#1#2#3#4#5#6{\oldnewlabel{#1}{{#2}{#3}}}
\AtEndDocument{\ifx\hyper@anchor\@undefined
\let\contentsline\oldcontentsline
\let\newlabel\oldnewlabel
\fi}
\fi}
\global\let\hyper@last\relax 
\gdef\HyperFirstAtBeginDocument#1{#1}
\providecommand\HyField@AuxAddToFields[1]{}
\providecommand\HyField@AuxAddToCoFields[2]{}
\emailauthor{author.one@mail.com}{Author One\corref {cor1}\fnref {label3}}
\urlauthor{author-one-homepage.com}{Author One\corref {cor1}\fnref {label3}}
\emailauthor{author.two@mail.com}{Author Two}
\emailauthor{author.three@mail.com}{Author Three}
\Newlabel{label0}{1}
\Newlabel{cor1}{1}
\Newlabel{label3}{1}
\Newlabel{label4}{2}
\Newlabel{label1}{a}
\Newlabel{label2}{b}
\Newlabel{label5}{c}
\@writefile{toc}{\contentsline {section}{\numberline {1}Introduction}{1}{section.1}}
\citation{Gaussier1992}
\citation{Krizhevsky:2012:ICD:2999134.2999257}
\citation{r-fcn-object-detection-via-region-based-fully-convolutional-networks}
\citation{girshick14CVPR}
\citation{girshickICCV15fastrcnn}
\citation{DBLP:journals/corr/SermanetEZMFL13}
\citation{DBLP:journals/corr/RenHG015,DBLP:journals/corr/RedmonF16,DBLP:journals/corr/LiuAESR15}
\citation{Gaussier1992}
\citation{nortonstark1991}
\@writefile{toc}{\contentsline {section}{\numberline {2}Models}{3}{section.2}}
\@writefile{toc}{\contentsline {subsection}{\numberline {2.1}Deep network model}{3}{subsection.2.1}}
\@writefile{toc}{\contentsline {subsection}{\numberline {2.2}Saccade-based model}{3}{subsection.2.2}}
\@writefile{toc}{\contentsline {subsubsection}{\numberline {2.2.1}Saliency and Points of interest}{3}{subsubsection.2.2.1}}
\citation{schwartz1980computational}
\@writefile{lof}{\contentsline {figure}{\numberline {1}{\ignorespaces Example of reprocessing of the input image. a) The input image is a 640x480 grayscale 2D image b) The gradient of the image extracted c) The gradient is convoluted with a DoG filter d) After competition, the local maxima are extracted, and give local points of interest. e) Around each point, we extract a local view. f) The local view is projected in log-polar coordinates. \relax }}{4}{figure.caption.1}}
\providecommand*\caption@xref[2]{\@setref\relax\@undefined{#1}}
\newlabel{fig: focuspoints gradient}{{1}{4}{Example of reprocessing of the input image. a) The input image is a 640x480 grayscale 2D image b) The gradient of the image extracted c) The gradient is convoluted with a DoG filter d) After competition, the local maxima are extracted, and give local points of interest. e) Around each point, we extract a local view. f) The local view is projected in log-polar coordinates. \relax }{figure.caption.1}{}}
\@writefile{toc}{\contentsline {subsubsection}{\numberline {2.2.2}Local view signature from oriented gabors and log-polar transformation}{4}{subsubsection.2.2.2}}
\@writefile{toc}{\contentsline {subsubsection}{\numberline {2.2.3}Learning to categorize and recognize the local views}{4}{subsubsection.2.2.3}}
\citation{Widrow1960}
\citation{Pavlov1927}
\newlabel{eq:SAW activity}{{1}{5}{Learning to categorize and recognize the local views}{equation.2.1}{}}
\newlabel{eq:SAW complement to 1}{{2}{5}{Learning to categorize and recognize the local views}{equation.2.2}{}}
\newlabel{eq:SAW update weight}{{4}{5}{Learning to categorize and recognize the local views}{equation.2.4}{}}
\newlabel{eq:LMS update weight}{{5}{5}{Learning to categorize and recognize the local views}{equation.2.5}{}}
\@writefile{toc}{\contentsline {subsubsection}{\numberline {2.2.4}Localization}{5}{subsubsection.2.2.4}}
\newlabel{fig:sfig1}{{3a}{7}{object recognized\relax }{figure.caption.3}{}}
\newlabel{sub@fig:sfig1}{{a}{7}{object recognized\relax }{figure.caption.3}{}}
\newlabel{fig:sfig2}{{3b}{7}{1b\relax }{figure.caption.3}{}}
\newlabel{sub@fig:sfig2}{{b}{7}{1b\relax }{figure.caption.3}{}}
\newlabel{fig:sfig3}{{3c}{7}{1c\relax }{figure.caption.3}{}}
\newlabel{sub@fig:sfig3}{{c}{7}{1c\relax }{figure.caption.3}{}}
\newlabel{fig:sfig4}{{3d}{7}{1d\relax }{figure.caption.3}{}}
\newlabel{sub@fig:sfig4}{{d}{7}{1d\relax }{figure.caption.3}{}}
\@writefile{lof}{\contentsline {figure}{\numberline {3}{\ignorespaces cefvrtehyuithgf\relax }}{7}{figure.caption.3}}
\newlabel{fig:peak_activity}{{3}{7}{cefvrtehyuithgf\relax }{figure.caption.3}{}}
\@writefile{lof}{\contentsline {figure}{\numberline {2}{\ignorespaces Architecture for Visual referential construction.  During the learning phase, the object is centered in the image (a). A Winner-Takes-All (WTA) mechanism sequentiallly selects each focus point (b), and its absolute position, projected on the y coordinate, is coded in a neural group (c).  The SAW group (d) categorizes the local view around the focus point, and its ouput is sent to the LMS supervised learning group to link it to its localization (e), and the recognized object (g).  During the test phase, the absolute position of the focus point is shifted in the neural group (f), with the value learned in (e). A multiplicative structure (h) filters out the local view which belong to unwanted objects. A neural group (i) integrates the information over all the focus points, and codes in neural field. At the end, a competitive neural group (j) extract the center of the object. \relax }}{7}{figure.caption.2}}
\newlabel{fig:localization_architecture}{{2}{7}{Architecture for Visual referential construction.\\ During the learning phase, the object is centered in the image (a). A Winner-Takes-All (WTA) mechanism sequentiallly selects each focus point (b), and its absolute position, projected on the y coordinate, is coded in a neural group (c).\\ The SAW group (d) categorizes the local view around the focus point, and its ouput is sent to the LMS supervised learning group to link it to its localization (e), and the recognized object (g).\\ During the test phase, the absolute position of the focus point is shifted in the neural group (f), with the value learned in (e). A multiplicative structure (h) filters out the local view which belong to unwanted objects. A neural group (i) integrates the information over all the focus points, and codes in neural field. At the end, a competitive neural group (j) extract the center of the object. \relax }{figure.caption.2}{}}
\citation{Lepretre2000}
\citation{Gaussier1992}
\@writefile{toc}{\contentsline {subsection}{\numberline {2.3}Fusion of the 'What' and 'Where' information: View cell for object recognition}{8}{subsection.2.3}}
\@writefile{toc}{\contentsline {subsubsection}{\numberline {2.3.1}'What' pathway}{8}{subsubsection.2.3.1}}
\@writefile{toc}{\contentsline {subsubsection}{\numberline {2.3.2}2) 'Where' pathway}{8}{subsubsection.2.3.2}}
\@writefile{toc}{\contentsline {subsubsection}{\numberline {2.3.3}3) Merging the 'What' and 'Where' informations}{8}{subsubsection.2.3.3}}
\newlabel{eq:SAW update weight}{{6}{8}{3) Merging the 'What' and 'Where' informations}{equation.2.6}{}}
\@writefile{toc}{\contentsline {subsection}{\numberline {2.4}Learning the scanpath}{8}{subsection.2.4}}
\@writefile{toc}{\contentsline {subsubsection}{\numberline {2.4.1}The PerAc Model}{8}{subsubsection.2.4.1}}
\@writefile{lof}{\contentsline {figure}{\numberline {4}{\ignorespaces Architecture for the 'What-Where' fusion. The input (a) is a group of neuron coding the local view, in log-polar coordinates, which is sent to a SAW classification algorithm. The 'what (b) and the 'where' (c) are merged into the what-where map (d). A Short-time-memory STM (e) integrates the information over all the focus points. The global what-where map is categorized by a SAW algorithm (f), and the object recognition is done with a supervised LMS learning algorithm (g). \relax }}{9}{figure.caption.4}}
\newlabel{fig:what_where}{{4}{9}{Architecture for the 'What-Where' fusion. The input (a) is a group of neuron coding the local view, in log-polar coordinates, which is sent to a SAW classification algorithm. The 'what (b) and the 'where' (c) are merged into the what-where map (d). A Short-time-memory STM (e) integrates the information over all the focus points. The global what-where map is categorized by a SAW algorithm (f), and the object recognition is done with a supervised LMS learning algorithm (g). \relax }{figure.caption.4}{}}
\@writefile{toc}{\contentsline {subsubsection}{\numberline {2.4.2}The PerAc Model for saccade control}{9}{subsubsection.2.4.2}}
\citation{Rothganger2006}
\@writefile{toc}{\contentsline {section}{\numberline {3}Experiments}{10}{section.3}}
\@writefile{toc}{\contentsline {subsection}{\numberline {3.1}Material Hardware}{10}{subsection.3.1}}
\@writefile{toc}{\contentsline {subsection}{\numberline {3.2}Dataset of evaluation}{10}{subsection.3.2}}
\@writefile{toc}{\contentsline {subsubsection}{\numberline {3.2.1}SSD}{10}{subsubsection.3.2.1}}
\@writefile{lof}{\contentsline {figure}{\numberline {5}{\ignorespaces Architecture for scanpath learning. The focus points of a 2D grayscale image are extracted and coded in a 2D neural map (a). A Winner-Takes-All (WTA) mechanism selects the most salient point (b). An inhibition neural group (c) with a Shot-Time-memory (STM) is used for inhibition, omits iteratively the last considered point, to explore successively all the focus points. This inhibition is used on the same iteration in the neural group (d), which represents the next focus point that is to come after the one represented in (b). During the Learning phase, the shift mechanism (e) computes the relative distance between those two points, and the LMS supervised learning group (g) associates this value to the current local view, processed in the SAW recognition group (f). During the test phase, the neural group (h), shifts the position of the current focus point, with the value learned in (g), according to the local view recognized in (f). A WTA group (i), is used to force the system to choose the position of a learned focus point over a randomly salient one. \relax }}{11}{figure.caption.5}}
\newlabel{fig:scanpath_learning}{{5}{11}{Architecture for scanpath learning. The focus points of a 2D grayscale image are extracted and coded in a 2D neural map (a). A Winner-Takes-All (WTA) mechanism selects the most salient point (b). An inhibition neural group (c) with a Shot-Time-memory (STM) is used for inhibition, omits iteratively the last considered point, to explore successively all the focus points. This inhibition is used on the same iteration in the neural group (d), which represents the next focus point that is to come after the one represented in (b). During the Learning phase, the shift mechanism (e) computes the relative distance between those two points, and the LMS supervised learning group (g) associates this value to the current local view, processed in the SAW recognition group (f). During the test phase, the neural group (h), shifts the position of the current focus point, with the value learned in (g), according to the local view recognized in (f). A WTA group (i), is used to force the system to choose the position of a learned focus point over a randomly salient one. \relax }{figure.caption.5}{}}
\@writefile{toc}{\contentsline {subsubsection}{\numberline {3.2.2}Saccadic Model}{12}{subsubsection.3.2.2}}
\@writefile{lof}{\contentsline {figure}{\numberline {6}{\ignorespaces Dataset used for the evaluation of the model : (a) Exemples of the 5 objet classes, shot from various angles, on a black background. (b) Natural cluttered scenes used for Testing.\relax }}{12}{figure.caption.6}}
\newlabel{fig:dataset}{{6}{12}{Dataset used for the evaluation of the model : (a) Exemples of the 5 objet classes, shot from various angles, on a black background. (b) Natural cluttered scenes used for Testing.\relax }{figure.caption.6}{}}
\@writefile{lof}{\contentsline {figure}{\numberline {7}{\ignorespaces Illustration of learning on the training dataset: (a) focus points a successively explored in the image (b) corresponding grayscale local views are extracted for training \relax }}{13}{figure.caption.7}}
\newlabel{fig:training}{{7}{13}{Illustration of learning on the training dataset: (a) focus points a successively explored in the image (b) corresponding grayscale local views are extracted for training \relax }{figure.caption.7}{}}
\@writefile{toc}{\contentsline {subsection}{\numberline {3.3}Results}{13}{subsection.3.3}}
\bibstyle{elsarticle-num}
\bibdata{bibliography.bib}
\bibcite{Gaussier1992}{{1}{}{{}}{{}}}
\bibcite{Krizhevsky:2012:ICD:2999134.2999257}{{2}{}{{}}{{}}}
\@writefile{toc}{\contentsline {section}{\numberline {4}Discussion and Analysis}{14}{section.4}}
\@writefile{toc}{\contentsline {subsubsection}{\numberline {4.0.1}Influence of data augmentation}{14}{subsubsection.4.0.1}}
\@writefile{toc}{\contentsline {section}{\numberline {5}Conclusion}{14}{section.5}}
\@writefile{toc}{\let\numberline\tmptocnumberline}
\@writefile{toc}{\contentsline {section}{\numberline {Appendix \nobreakspace  {}A}Section in Appendix}{14}{appendix.A}}
\bibcite{r-fcn-object-detection-via-region-based-fully-convolutional-networks}{{3}{}{{}}{{}}}
\bibcite{girshick14CVPR}{{4}{}{{}}{{}}}
\bibcite{girshickICCV15fastrcnn}{{5}{}{{}}{{}}}
\bibcite{DBLP:journals/corr/SermanetEZMFL13}{{6}{}{{}}{{}}}
\bibcite{DBLP:journals/corr/RenHG015}{{7}{}{{}}{{}}}
\bibcite{DBLP:journals/corr/RedmonF16}{{8}{}{{}}{{}}}
\bibcite{DBLP:journals/corr/LiuAESR15}{{9}{}{{}}{{}}}
\bibcite{nortonstark1991}{{10}{}{{}}{{}}}
\bibcite{schwartz1980computational}{{11}{}{{}}{{}}}
\bibcite{Widrow1960}{{12}{}{{}}{{}}}
\bibcite{Pavlov1927}{{13}{}{{}}{{}}}
\bibcite{Lepretre2000}{{14}{}{{}}{{}}}
\bibcite{Rothganger2006}{{15}{}{{}}{{}}}
\providecommand\NAT@force@numbers{}\NAT@force@numbers
