<?xml version="1.0" encoding="UTF-8"?>
<!DOCTYPE svg PUBLIC '-//W3C//DTD SVG 1.0//EN'
          'http://www.w3.org/TR/2001/REC-SVG-20010904/DTD/svg10.dtd'>
<svg xmlns:xlink="http://www.w3.org/1999/xlink" style="fill-opacity:1; color-rendering:auto; color-interpolation:auto; text-rendering:auto; stroke:black; stroke-linecap:square; stroke-miterlimit:10; shape-rendering:auto; stroke-opacity:1; fill:black; stroke-dasharray:none; font-weight:normal; stroke-width:1; font-family:'Dialog'; font-style:normal; stroke-linejoin:miter; font-size:12px; stroke-dashoffset:0; image-rendering:auto;" width="610" height="460" xmlns="http://www.w3.org/2000/svg"
><!--Generated by Scilab with Batik SVG Generator--><defs id="genericDefs"
  /><g
  ><defs id="defs1"
    ><clipPath clipPathUnits="userSpaceOnUse" id="clipPath1"
      ><path d="M90.9956 57.4966 L533.7545 57.4966 L533.7545 398.0034 L90.9956 398.0034 L90.9956 57.4966 Z"
      /></clipPath
      ><clipPath clipPathUnits="userSpaceOnUse" id="clipPath2"
      ><path d="M-4.5 -4.5 L-4.5 0.0034 L0.0034 0.0034 L-4.5 -4.5 Z"
      /></clipPath
      ><clipPath clipPathUnits="userSpaceOnUse" id="clipPath3"
      ><path d="M4.5 -4.5 L0.0034 0.0034 L4.5 0.0034 L4.5 -4.5 Z"
      /></clipPath
      ><clipPath clipPathUnits="userSpaceOnUse" id="clipPath4"
      ><path d="M-4.5 -4.5 L0.0034 0.0034 L4.5 -4.5 Z"
      /></clipPath
      ><clipPath clipPathUnits="userSpaceOnUse" id="clipPath5"
      ><path d="M-4.5 -4.5 L-4.5 0.1481 L0.1481 0.1481 L-4.5 -4.5 Z"
      /></clipPath
      ><clipPath clipPathUnits="userSpaceOnUse" id="clipPath6"
      ><path d="M4.5 -4.5 L0.1481 0.1481 L4.5 0.1481 L4.5 -4.5 Z"
      /></clipPath
      ><clipPath clipPathUnits="userSpaceOnUse" id="clipPath7"
      ><path d="M-4.5 -4.5 L0.1481 0.1481 L4.5 -4.5 Z"
      /></clipPath
      ><clipPath clipPathUnits="userSpaceOnUse" id="clipPath8"
      ><path d="M-4.5 -4.5 L0.0044 0.0044 L0.0044 -4.5 Z"
      /></clipPath
      ><clipPath clipPathUnits="userSpaceOnUse" id="clipPath9"
      ><path d="M0.0044 0.0044 L-2.1737 0.1481 L0.0044 0.1481 L0.0044 0.0044 Z"
      /></clipPath
      ><clipPath clipPathUnits="userSpaceOnUse" id="clipPath10"
      ><path d="M-4.5 -4.5 L-2.1737 0.1481 L0.0044 0.0044 L-4.5 -4.5 Z"
      /></clipPath
      ><clipPath clipPathUnits="userSpaceOnUse" id="clipPath11"
      ><path d="M-4.5 -4.5 L-4.5 0.1481 L-2.1737 0.1481 L-4.5 -4.5 Z"
      /></clipPath
      ><clipPath clipPathUnits="userSpaceOnUse" id="clipPath12"
      ><path d="M-4.5 -4.5 L0.0044 4.5 L0.0044 0.0044 L-4.5 -4.5 Z"
      /></clipPath
      ><clipPath clipPathUnits="userSpaceOnUse" id="clipPath13"
      ><path d="M-4.5 -4.5 L-4.5 4.5 L0.0044 4.5 L-4.5 -4.5 Z"
      /></clipPath
      ><font horiz-adv-x="60.0" id="font1"
      ><font-face ascent="92.822266" descent="23.583984" units-per-em="100" style="font-style:normal; font-family:sans-serif; font-weight:normal;"
        /><missing-glyph horiz-adv-x="60.0" d="M4.9844 -17.6719 L4.9844 70.5156 L54.9844 70.5156 L54.9844 -17.6719 L4.9844 -17.6719 ZM10.5938 -12.1094 L49.4219 -12.1094 L49.4219 64.8906 L10.5938 64.8906 L10.5938 -12.1094 Z"
        /><glyph unicode="0" horiz-adv-x="64.0" d="M31.7812 66.4062 Q24.1719 66.4062 20.3359 58.9141 Q16.5 51.4219 16.5 36.375 Q16.5 21.3906 20.3359 13.8906 Q24.1719 6.3906 31.7812 6.3906 Q39.4531 6.3906 43.2891 13.8906 Q47.125 21.3906 47.125 36.375 Q47.125 51.4219 43.2891 58.9141 Q39.4531 66.4062 31.7812 66.4062 ZM31.7812 74.2188 Q44.0469 74.2188 50.5156 64.5234 Q56.9844 54.8281 56.9844 36.375 Q56.9844 17.9688 50.5156 8.2734 Q44.0469 -1.4219 31.7812 -1.4219 Q19.5312 -1.4219 13.0625 8.2734 Q6.5938 17.9688 6.5938 36.375 Q6.5938 54.8281 13.0625 64.5234 Q19.5312 74.2188 31.7812 74.2188 Z"
        /><glyph unicode="1" horiz-adv-x="64.0" d="M12.4062 8.2969 L28.5156 8.2969 L28.5156 63.9219 L10.9844 60.4062 L10.9844 69.3906 L28.4219 72.9062 L38.2812 72.9062 L38.2812 8.2969 L54.3906 8.2969 L54.3906 0 L12.4062 0 L12.4062 8.2969 Z"
        /><glyph unicode="2" horiz-adv-x="64.0" d="M19.1875 8.2969 L53.6094 8.2969 L53.6094 0 L7.3281 0 L7.3281 8.2969 Q12.9375 14.1094 22.6328 23.8984 Q32.3281 33.6875 34.8125 36.5312 Q39.5469 41.8438 41.4297 45.5312 Q43.3125 49.2188 43.3125 52.7812 Q43.3125 58.5938 39.2344 62.2578 Q35.1562 65.9219 28.6094 65.9219 Q23.9688 65.9219 18.8203 64.3125 Q13.6719 62.7031 7.8125 59.4219 L7.8125 69.3906 Q13.7656 71.7812 18.9453 73 Q24.125 74.2188 28.4219 74.2188 Q39.75 74.2188 46.4844 68.5547 Q53.2188 62.8906 53.2188 53.4219 Q53.2188 48.9219 51.5391 44.8984 Q49.8594 40.875 45.4062 35.4062 Q44.1875 33.9844 37.6484 27.2188 Q31.1094 20.4531 19.1875 8.2969 Z"
        /><glyph unicode="4" horiz-adv-x="64.0" d="M37.7969 64.3125 L12.8906 25.3906 L37.7969 25.3906 L37.7969 64.3125 ZM35.2031 72.9062 L47.6094 72.9062 L47.6094 25.3906 L58.0156 25.3906 L58.0156 17.1875 L47.6094 17.1875 L47.6094 0 L37.7969 0 L37.7969 17.1875 L4.8906 17.1875 L4.8906 26.7031 L35.2031 72.9062 Z"
        /><glyph unicode="6" horiz-adv-x="64.0" d="M33.0156 40.375 Q26.375 40.375 22.4922 35.8359 Q18.6094 31.2969 18.6094 23.3906 Q18.6094 15.5312 22.4922 10.9609 Q26.375 6.3906 33.0156 6.3906 Q39.6562 6.3906 43.5312 10.9609 Q47.4062 15.5312 47.4062 23.3906 Q47.4062 31.2969 43.5312 35.8359 Q39.6562 40.375 33.0156 40.375 ZM52.5938 71.2969 L52.5938 62.3125 Q48.875 64.0625 45.0938 64.9922 Q41.3125 65.9219 37.5938 65.9219 Q27.8281 65.9219 22.6797 59.3281 Q17.5312 52.7344 16.7969 39.4062 Q19.6719 43.6562 24.0234 45.9219 Q28.375 48.1875 33.5938 48.1875 Q44.5781 48.1875 50.9531 41.5234 Q57.3281 34.8594 57.3281 23.3906 Q57.3281 12.1562 50.6875 5.3672 Q44.0469 -1.4219 33.0156 -1.4219 Q20.3594 -1.4219 13.6719 8.2734 Q6.9844 17.9688 6.9844 36.375 Q6.9844 53.6562 15.1875 63.9375 Q23.3906 74.2188 37.2031 74.2188 Q40.9219 74.2188 44.7031 73.4844 Q48.4844 72.75 52.5938 71.2969 Z"
        /><glyph unicode="8" horiz-adv-x="64.0" d="M31.7812 34.625 Q24.75 34.625 20.7266 30.8594 Q16.7031 27.0938 16.7031 20.5156 Q16.7031 13.9219 20.7266 10.1562 Q24.75 6.3906 31.7812 6.3906 Q38.8125 6.3906 42.8672 10.1797 Q46.9219 13.9688 46.9219 20.5156 Q46.9219 27.0938 42.8984 30.8594 Q38.875 34.625 31.7812 34.625 ZM21.9219 38.8125 Q15.5781 40.375 12.0391 44.7266 Q8.5 49.0781 8.5 55.3281 Q8.5 64.0625 14.7266 69.1406 Q20.9531 74.2188 31.7812 74.2188 Q42.6719 74.2188 48.875 69.1406 Q55.0781 64.0625 55.0781 55.3281 Q55.0781 49.0781 51.5391 44.7266 Q48 40.375 41.7031 38.8125 Q48.8281 37.1562 52.8047 32.3203 Q56.7812 27.4844 56.7812 20.5156 Q56.7812 9.9062 50.3125 4.2422 Q43.8438 -1.4219 31.7812 -1.4219 Q19.7344 -1.4219 13.2578 4.2422 Q6.7812 9.9062 6.7812 20.5156 Q6.7812 27.4844 10.7891 32.3203 Q14.7969 37.1562 21.9219 38.8125 ZM18.3125 54.3906 Q18.3125 48.7344 21.8516 45.5625 Q25.3906 42.3906 31.7812 42.3906 Q38.1406 42.3906 41.7266 45.5625 Q45.3125 48.7344 45.3125 54.3906 Q45.3125 60.0625 41.7266 63.2344 Q38.1406 66.4062 31.7812 66.4062 Q25.3906 66.4062 21.8516 63.2344 Q18.3125 60.0625 18.3125 54.3906 Z"
        /><glyph unicode="." horiz-adv-x="32.0" d="M10.6875 12.4062 L21 12.4062 L21 0 L10.6875 0 L10.6875 12.4062 Z"
        /><glyph unicode="3" horiz-adv-x="64.0" d="M40.5781 39.3125 Q47.6562 37.7969 51.6328 33.0078 Q55.6094 28.2188 55.6094 21.1875 Q55.6094 10.4062 48.1875 4.4922 Q40.7656 -1.4219 27.0938 -1.4219 Q22.5156 -1.4219 17.6562 -0.5156 Q12.7969 0.3906 7.625 2.2031 L7.625 11.7188 Q11.7188 9.3281 16.6016 8.1094 Q21.4844 6.8906 26.8125 6.8906 Q36.0781 6.8906 40.9375 10.5469 Q45.7969 14.2031 45.7969 21.1875 Q45.7969 27.6406 41.2812 31.2734 Q36.7656 34.9062 28.7188 34.9062 L20.2188 34.9062 L20.2188 43.0156 L29.1094 43.0156 Q36.375 43.0156 40.2344 45.9219 Q44.0938 48.8281 44.0938 54.2969 Q44.0938 59.9062 40.1172 62.9141 Q36.1406 65.9219 28.7188 65.9219 Q24.6562 65.9219 20.0156 65.0391 Q15.375 64.1562 9.8125 62.3125 L9.8125 71.0938 Q15.4375 72.6562 20.3438 73.4375 Q25.25 74.2188 29.5938 74.2188 Q40.8281 74.2188 47.3672 69.1172 Q53.9062 64.0156 53.9062 55.3281 Q53.9062 49.2656 50.4375 45.0938 Q46.9688 40.9219 40.5781 39.3125 Z"
        /><glyph unicode="5" horiz-adv-x="64.0" d="M10.7969 72.9062 L49.5156 72.9062 L49.5156 64.5938 L19.8281 64.5938 L19.8281 46.7344 Q21.9688 47.4688 24.1172 47.8281 Q26.2656 48.1875 28.4219 48.1875 Q40.625 48.1875 47.7578 41.5 Q54.8906 34.8125 54.8906 23.3906 Q54.8906 11.625 47.5625 5.1016 Q40.2344 -1.4219 26.9062 -1.4219 Q22.3125 -1.4219 17.5547 -0.6406 Q12.7969 0.1406 7.7188 1.7031 L7.7188 11.625 Q12.1094 9.2344 16.7969 8.0625 Q21.4844 6.8906 26.7031 6.8906 Q35.1562 6.8906 40.0859 11.3281 Q45.0156 15.7656 45.0156 23.3906 Q45.0156 31 40.0859 35.4453 Q35.1562 39.8906 26.7031 39.8906 Q22.75 39.8906 18.8203 39.0156 Q14.8906 38.1406 10.7969 36.2812 L10.7969 72.9062 Z"
        /><glyph unicode="s" horiz-adv-x="52.0" d="M44.2812 53.0781 L44.2812 44.5781 Q40.4844 46.5312 36.3828 47.5078 Q32.2812 48.4844 27.875 48.4844 Q21.1875 48.4844 17.8438 46.4375 Q14.5 44.3906 14.5 40.2812 Q14.5 37.1562 16.8906 35.375 Q19.2812 33.5938 26.5156 31.9844 L29.5938 31.2969 Q39.1562 29.25 43.1875 25.5156 Q47.2188 21.7812 47.2188 15.0938 Q47.2188 7.4688 41.1875 3.0234 Q35.1562 -1.4219 24.6094 -1.4219 Q20.2188 -1.4219 15.4531 -0.5625 Q10.6875 0.2969 5.4219 2 L5.4219 11.2812 Q10.4062 8.6875 15.2344 7.3984 Q20.0625 6.1094 24.8125 6.1094 Q31.1562 6.1094 34.5703 8.2812 Q37.9844 10.4531 37.9844 14.4062 Q37.9844 18.0625 35.5234 20.0156 Q33.0625 21.9688 24.7031 23.7812 L21.5781 24.5156 Q13.2344 26.2656 9.5234 29.9062 Q5.8125 33.5469 5.8125 39.8906 Q5.8125 47.6094 11.2812 51.8047 Q16.75 56 26.8125 56 Q31.7812 56 36.1797 55.2734 Q40.5781 54.5469 44.2812 53.0781 Z"
        /><glyph unicode="e" horiz-adv-x="62.0" d="M56.2031 29.5938 L56.2031 25.2031 L14.8906 25.2031 Q15.4844 15.9219 20.4844 11.0625 Q25.4844 6.2031 34.4219 6.2031 Q39.5938 6.2031 44.4531 7.4688 Q49.3125 8.7344 54.1094 11.2812 L54.1094 2.7812 Q49.2656 0.7344 44.1875 -0.3438 Q39.1094 -1.4219 33.8906 -1.4219 Q20.7969 -1.4219 13.1562 6.1953 Q5.5156 13.8125 5.5156 26.8125 Q5.5156 40.2344 12.7656 48.1172 Q20.0156 56 32.3281 56 Q43.3594 56 49.7812 48.8984 Q56.2031 41.7969 56.2031 29.5938 ZM47.2188 32.2344 Q47.125 39.5938 43.0938 43.9922 Q39.0625 48.3906 32.4219 48.3906 Q24.9062 48.3906 20.3906 44.1406 Q15.875 39.8906 15.1875 32.1719 L47.2188 32.2344 Z"
        /><glyph unicode="d" horiz-adv-x="63.0" d="M45.4062 46.3906 L45.4062 75.9844 L54.3906 75.9844 L54.3906 0 L45.4062 0 L45.4062 8.2031 Q42.5781 3.3281 38.2578 0.9531 Q33.9375 -1.4219 27.875 -1.4219 Q17.9688 -1.4219 11.7422 6.4922 Q5.5156 14.4062 5.5156 27.2969 Q5.5156 40.1875 11.7422 48.0938 Q17.9688 56 27.875 56 Q33.9375 56 38.2578 53.6328 Q42.5781 51.2656 45.4062 46.3906 ZM14.7969 27.2969 Q14.7969 17.3906 18.875 11.75 Q22.9531 6.1094 30.0781 6.1094 Q37.2031 6.1094 41.3047 11.75 Q45.4062 17.3906 45.4062 27.2969 Q45.4062 37.2031 41.3047 42.8438 Q37.2031 48.4844 30.0781 48.4844 Q22.9531 48.4844 18.875 42.8438 Q14.7969 37.2031 14.7969 27.2969 Z"
        /><glyph unicode="c" horiz-adv-x="55.0" d="M48.7812 52.5938 L48.7812 44.1875 Q44.9688 46.2969 41.1406 47.3438 Q37.3125 48.3906 33.4062 48.3906 Q24.6562 48.3906 19.8203 42.8516 Q14.9844 37.3125 14.9844 27.2969 Q14.9844 17.2812 19.8203 11.7422 Q24.6562 6.2031 33.4062 6.2031 Q37.3125 6.2031 41.1406 7.25 Q44.9688 8.2969 48.7812 10.4062 L48.7812 2.0938 Q45.0156 0.3438 40.9922 -0.5391 Q36.9688 -1.4219 32.4219 -1.4219 Q20.0625 -1.4219 12.7891 6.3438 Q5.5156 14.1094 5.5156 27.2969 Q5.5156 40.6719 12.8672 48.3359 Q20.2188 56 33.0156 56 Q37.1562 56 41.1094 55.1484 Q45.0625 54.2969 48.7812 52.5938 Z"
        /><glyph unicode="a" horiz-adv-x="61.0" d="M34.2812 27.4844 Q23.3906 27.4844 19.1875 25 Q14.9844 22.5156 14.9844 16.5 Q14.9844 11.7188 18.1406 8.9141 Q21.2969 6.1094 26.7031 6.1094 Q34.1875 6.1094 38.7031 11.4062 Q43.2188 16.7031 43.2188 25.4844 L43.2188 27.4844 L34.2812 27.4844 ZM52.2031 31.2031 L52.2031 0 L43.2188 0 L43.2188 8.2969 Q40.1406 3.3281 35.5469 0.9531 Q30.9531 -1.4219 24.3125 -1.4219 Q15.9219 -1.4219 10.9609 3.2969 Q6 8.0156 6 15.9219 Q6 25.1406 12.1797 29.8281 Q18.3594 34.5156 30.6094 34.5156 L43.2188 34.5156 L43.2188 35.4062 Q43.2188 41.6094 39.1406 45 Q35.0625 48.3906 27.6875 48.3906 Q23 48.3906 18.5547 47.2656 Q14.1094 46.1406 10.0156 43.8906 L10.0156 52.2031 Q14.9375 54.1094 19.5781 55.0547 Q24.2188 56 28.6094 56 Q40.4844 56 46.3438 49.8516 Q52.2031 43.7031 52.2031 31.2031 Z"
        /><glyph unicode="S" horiz-adv-x="63.0" d="M53.5156 70.5156 L53.5156 60.8906 Q47.9062 63.5781 42.9219 64.8984 Q37.9375 66.2188 33.2969 66.2188 Q25.25 66.2188 20.875 63.0938 Q16.5 59.9688 16.5 54.2031 Q16.5 49.3594 19.4062 46.8984 Q22.3125 44.4375 30.4219 42.9219 L36.375 41.7031 Q47.4062 39.5938 52.6562 34.2969 Q57.9062 29 57.9062 20.125 Q57.9062 9.5156 50.8047 4.0469 Q43.7031 -1.4219 29.9844 -1.4219 Q24.8125 -1.4219 18.9766 -0.25 Q13.1406 0.9219 6.8906 3.2188 L6.8906 13.375 Q12.8906 10.0156 18.6562 8.3047 Q24.4219 6.5938 29.9844 6.5938 Q38.4219 6.5938 43.0156 9.9141 Q47.6094 13.2344 47.6094 19.3906 Q47.6094 24.75 44.3125 27.7812 Q41.0156 30.8125 33.5 32.3281 L27.4844 33.5 Q16.4531 35.6875 11.5234 40.375 Q6.5938 45.0625 6.5938 53.4219 Q6.5938 63.0938 13.4062 68.6562 Q20.2188 74.2188 32.1719 74.2188 Q37.3125 74.2188 42.6328 73.2891 Q47.9531 72.3594 53.5156 70.5156 Z"
        /><glyph unicode="y" horiz-adv-x="59.0" d="M32.1719 -5.0781 Q28.375 -14.8438 24.7578 -17.8203 Q21.1406 -20.7969 15.0938 -20.7969 L7.9062 -20.7969 L7.9062 -13.2812 L13.1875 -13.2812 Q16.8906 -13.2812 18.9453 -11.5234 Q21 -9.7656 23.4844 -3.2188 L25.0938 0.875 L2.9844 54.6875 L12.5 54.6875 L29.5938 11.9219 L46.6875 54.6875 L56.2031 54.6875 L32.1719 -5.0781 Z"
        /><glyph unicode="v" horiz-adv-x="59.0" d="M2.9844 54.6875 L12.5 54.6875 L29.5938 8.7969 L46.6875 54.6875 L56.2031 54.6875 L35.6875 0 L23.4844 0 L2.9844 54.6875 Z"
        /><glyph unicode="i" horiz-adv-x="28.0" d="M9.4219 54.6875 L18.4062 54.6875 L18.4062 0 L9.4219 0 L9.4219 54.6875 ZM9.4219 75.9844 L18.4062 75.9844 L18.4062 64.5938 L9.4219 64.5938 L9.4219 75.9844 Z"
        /><glyph unicode="t" horiz-adv-x="39.0" d="M18.3125 70.2188 L18.3125 54.6875 L36.8125 54.6875 L36.8125 47.7031 L18.3125 47.7031 L18.3125 18.0156 Q18.3125 11.3281 20.1406 9.4219 Q21.9688 7.5156 27.5938 7.5156 L36.8125 7.5156 L36.8125 0 L27.5938 0 Q17.1875 0 13.2344 3.8828 Q9.2812 7.7656 9.2812 18.0156 L9.2812 47.7031 L2.6875 47.7031 L2.6875 54.6875 L9.2812 54.6875 L9.2812 70.2188 L18.3125 70.2188 Z"
        /><glyph unicode=" " horiz-adv-x="32.0" d=""
        /><glyph unicode="l" horiz-adv-x="28.0" d="M9.4219 75.9844 L18.4062 75.9844 L18.4062 0 L9.4219 0 L9.4219 75.9844 Z"
        /><glyph unicode="r" horiz-adv-x="41.0" d="M41.1094 46.2969 Q39.5938 47.1719 37.8125 47.5859 Q36.0312 48 33.8906 48 Q26.2656 48 22.1875 43.0469 Q18.1094 38.0938 18.1094 28.8125 L18.1094 0 L9.0781 0 L9.0781 54.6875 L18.1094 54.6875 L18.1094 46.1875 Q20.9531 51.1719 25.4922 53.5859 Q30.0312 56 36.5312 56 Q37.4531 56 38.5781 55.8828 Q39.7031 55.7656 41.0625 55.5156 L41.1094 46.2969 Z"
        /><glyph unicode="u" horiz-adv-x="63.0" d="M8.5 21.5781 L8.5 54.6875 L17.4844 54.6875 L17.4844 21.9219 Q17.4844 14.1562 20.5078 10.2734 Q23.5312 6.3906 29.5938 6.3906 Q36.8594 6.3906 41.0859 11.0312 Q45.3125 15.6719 45.3125 23.6875 L45.3125 54.6875 L54.2969 54.6875 L54.2969 0 L45.3125 0 L45.3125 8.4062 Q42.0469 3.4219 37.7266 1 Q33.4062 -1.4219 27.6875 -1.4219 Q18.2656 -1.4219 13.3828 4.4375 Q8.5 10.2969 8.5 21.5781 ZM31.1094 56 L31.1094 56 Z"
        /><glyph unicode="N" horiz-adv-x="75.0" d="M9.8125 72.9062 L23.0938 72.9062 L55.4219 11.9219 L55.4219 72.9062 L64.9844 72.9062 L64.9844 0 L51.7031 0 L19.3906 60.9844 L19.3906 0 L9.8125 0 L9.8125 72.9062 Z"
        /><glyph unicode="p" horiz-adv-x="63.0" d="M18.1094 8.2031 L18.1094 -20.7969 L9.0781 -20.7969 L9.0781 54.6875 L18.1094 54.6875 L18.1094 46.3906 Q20.9531 51.2656 25.2734 53.6328 Q29.5938 56 35.5938 56 Q45.5625 56 51.7891 48.0938 Q58.0156 40.1875 58.0156 27.2969 Q58.0156 14.4062 51.7891 6.4922 Q45.5625 -1.4219 35.5938 -1.4219 Q29.5938 -1.4219 25.2734 0.9531 Q20.9531 3.3281 18.1094 8.2031 ZM48.6875 27.2969 Q48.6875 37.2031 44.6094 42.8438 Q40.5312 48.4844 33.4062 48.4844 Q26.2656 48.4844 22.1875 42.8438 Q18.1094 37.2031 18.1094 27.2969 Q18.1094 17.3906 22.1875 11.75 Q26.2656 6.1094 33.4062 6.1094 Q40.5312 6.1094 44.6094 11.75 Q48.6875 17.3906 48.6875 27.2969 Z"
        /><glyph unicode="b" horiz-adv-x="63.0" d="M48.6875 27.2969 Q48.6875 37.2031 44.6094 42.8438 Q40.5312 48.4844 33.4062 48.4844 Q26.2656 48.4844 22.1875 42.8438 Q18.1094 37.2031 18.1094 27.2969 Q18.1094 17.3906 22.1875 11.75 Q26.2656 6.1094 33.4062 6.1094 Q40.5312 6.1094 44.6094 11.75 Q48.6875 17.3906 48.6875 27.2969 ZM18.1094 46.3906 Q20.9531 51.2656 25.2734 53.6328 Q29.5938 56 35.5938 56 Q45.5625 56 51.7891 48.0938 Q58.0156 40.1875 58.0156 27.2969 Q58.0156 14.4062 51.7891 6.4922 Q45.5625 -1.4219 35.5938 -1.4219 Q29.5938 -1.4219 25.2734 0.9531 Q20.9531 3.3281 18.1094 8.2031 L18.1094 0 L9.0781 0 L9.0781 75.9844 L18.1094 75.9844 L18.1094 46.3906 Z"
        /><glyph unicode="o" horiz-adv-x="61.0" d="M30.6094 48.3906 Q23.3906 48.3906 19.1875 42.75 Q14.9844 37.1094 14.9844 27.2969 Q14.9844 17.4844 19.1641 11.8438 Q23.3438 6.2031 30.6094 6.2031 Q37.7969 6.2031 41.9922 11.8672 Q46.1875 17.5312 46.1875 27.2969 Q46.1875 37.0156 41.9922 42.7031 Q37.7969 48.3906 30.6094 48.3906 ZM30.6094 56 Q42.3281 56 49.0234 48.3828 Q55.7188 40.7656 55.7188 27.2969 Q55.7188 13.875 49.0234 6.2266 Q42.3281 -1.4219 30.6094 -1.4219 Q18.8438 -1.4219 12.1797 6.2266 Q5.5156 13.875 5.5156 27.2969 Q5.5156 40.7656 12.1797 48.3828 Q18.8438 56 30.6094 56 Z"
        /><glyph unicode="k" horiz-adv-x="58.0" d="M9.0781 75.9844 L18.1094 75.9844 L18.1094 31.1094 L44.9219 54.6875 L56.3906 54.6875 L27.3906 29.1094 L57.625 0 L45.9062 0 L18.1094 26.7031 L18.1094 0 L9.0781 0 L9.0781 75.9844 Z"
        /><glyph unicode="=" horiz-adv-x="84.0" d="M10.5938 45.4062 L73.1875 45.4062 L73.1875 37.2031 L10.5938 37.2031 L10.5938 45.4062 ZM10.5938 25.4844 L73.1875 25.4844 L73.1875 17.1875 L10.5938 17.1875 L10.5938 25.4844 Z"
        /><glyph unicode="f" horiz-adv-x="35.0" d="M37.1094 75.9844 L37.1094 68.5 L28.5156 68.5 Q23.6875 68.5 21.8047 66.5469 Q19.9219 64.5938 19.9219 59.5156 L19.9219 54.6875 L34.7188 54.6875 L34.7188 47.7031 L19.9219 47.7031 L19.9219 0 L10.8906 0 L10.8906 47.7031 L2.2969 47.7031 L2.2969 54.6875 L10.8906 54.6875 L10.8906 58.5 Q10.8906 67.625 15.1406 71.8047 Q19.3906 75.9844 28.6094 75.9844 L37.1094 75.9844 Z"
        /><glyph unicode="m" horiz-adv-x="97.0" d="M52 44.1875 Q55.375 50.25 60.0625 53.125 Q64.75 56 71.0938 56 Q79.6406 56 84.2812 50.0234 Q88.9219 44.0469 88.9219 33.0156 L88.9219 0 L79.8906 0 L79.8906 32.7188 Q79.8906 40.5781 77.1016 44.3828 Q74.3125 48.1875 68.6094 48.1875 Q61.625 48.1875 57.5703 43.5547 Q53.5156 38.9219 53.5156 30.9062 L53.5156 0 L44.4844 0 L44.4844 32.7188 Q44.4844 40.625 41.7031 44.4062 Q38.9219 48.1875 33.1094 48.1875 Q26.2188 48.1875 22.1641 43.5312 Q18.1094 38.875 18.1094 30.9062 L18.1094 0 L9.0781 0 L9.0781 54.6875 L18.1094 54.6875 L18.1094 46.1875 Q21.1875 51.2188 25.4844 53.6094 Q29.7812 56 35.6875 56 Q41.6562 56 45.8281 52.9766 Q50 49.9531 52 44.1875 Z"
        /><glyph unicode="T" horiz-adv-x="61.0" d="M-0.2969 72.9062 L61.375 72.9062 L61.375 64.5938 L35.5 64.5938 L35.5 0 L25.5938 0 L25.5938 64.5938 L-0.2969 64.5938 L-0.2969 72.9062 Z"
        /><glyph unicode="n" horiz-adv-x="63.0" d="M54.8906 33.0156 L54.8906 0 L45.9062 0 L45.9062 32.7188 Q45.9062 40.4844 42.875 44.3359 Q39.8438 48.1875 33.7969 48.1875 Q26.5156 48.1875 22.3125 43.5547 Q18.1094 38.9219 18.1094 30.9062 L18.1094 0 L9.0781 0 L9.0781 54.6875 L18.1094 54.6875 L18.1094 46.1875 Q21.3438 51.125 25.7109 53.5625 Q30.0781 56 35.7969 56 Q45.2188 56 50.0547 50.1719 Q54.8906 44.3438 54.8906 33.0156 Z"
        /><glyph unicode="A" horiz-adv-x="68.0" d="M34.1875 63.1875 L20.7969 26.9062 L47.6094 26.9062 L34.1875 63.1875 ZM28.6094 72.9062 L39.7969 72.9062 L67.5781 0 L57.3281 0 L50.6875 18.7031 L17.8281 18.7031 L11.1875 0 L0.7812 0 L28.6094 72.9062 Z"
      /></font
    ></defs
    ><g style="fill:white; text-rendering:optimizeLegibility; stroke:white;"
    ><rect x="0" width="610" height="460" y="0" style="stroke:none;"
    /></g
    ><g style="text-rendering:geometricPrecision; font-size:18px; font-family:sans-serif;" transform="translate(85,407)"
    ><text x="-1.1875" xml:space="preserve" y="16.708" style="stroke:none;"
      >0</text
    ></g
    ><g style="text-rendering:geometricPrecision; font-size:18px; font-family:sans-serif;" transform="translate(396.25,407)"
    ><text x="-1.9844" xml:space="preserve" y="16.708" style="stroke:none;"
      >10</text
    ></g
    ><g style="text-rendering:geometricPrecision; font-size:18px; font-family:sans-serif;" transform="translate(148.75,407)"
    ><text x="-1.3125" xml:space="preserve" y="16.708" style="stroke:none;"
      >2</text
    ></g
    ><g style="text-rendering:geometricPrecision; font-size:18px; font-family:sans-serif;" transform="translate(211.5,407)"
    ><text x="-0.875" xml:space="preserve" y="16.708" style="stroke:none;"
      >4</text
    ></g
    ><g style="text-rendering:geometricPrecision; font-size:18px; font-family:sans-serif;" transform="translate(274.75,407)"
    ><text x="-1.25" xml:space="preserve" y="16.708" style="stroke:none;"
      >6</text
    ></g
    ><g style="text-rendering:geometricPrecision; font-size:18px; font-family:sans-serif;" transform="translate(338.5,407)"
    ><text x="-1.2188" xml:space="preserve" y="16.708" style="stroke:none;"
      >8</text
    ></g
    ><g style="text-rendering:geometricPrecision; font-size:18px; font-family:sans-serif;" transform="translate(460,407)"
    ><text x="-1.9844" xml:space="preserve" y="16.708" style="stroke:none;"
      >12</text
    ></g
    ><g style="text-rendering:geometricPrecision; font-size:18px; font-family:sans-serif;" transform="translate(522.75,407)"
    ><text x="-1.9844" xml:space="preserve" y="16.708" style="stroke:none;"
      >14</text
    ></g
    ><g style="text-rendering:geometricPrecision; font-size:18px; shape-rendering:crispEdges; font-family:sans-serif; stroke-linecap:butt;"
    ><path style="fill:none;" d="M91 398 L91 404"
      /><path style="fill:none;" d="M154.25 398 L154.25 404"
      /><path style="fill:none;" d="M217.5 398 L217.5 404"
      /><path style="fill:none;" d="M280.75 398 L280.75 404"
      /><path style="fill:none;" d="M344 398 L344 404"
      /><path style="fill:none;" d="M407.25 398 L407.25 404"
      /><path style="fill:none;" d="M470.5 398 L470.5 404"
      /><path style="fill:none;" d="M533.75 398 L533.75 404"
      /><path style="fill:none;" d="M91 398 L91 401"
      /><path style="fill:none;" d="M122.625 398 L122.625 401"
      /><path style="fill:none;" d="M154.25 398 L154.25 401"
      /><path style="fill:none;" d="M185.875 398 L185.875 401"
      /><path style="fill:none;" d="M217.5 398 L217.5 401"
      /><path style="fill:none;" d="M249.125 398 L249.125 401"
      /><path style="fill:none;" d="M280.75 398 L280.75 401"
      /><path style="fill:none;" d="M312.375 398 L312.375 401"
      /><path style="fill:none;" d="M344 398 L344 401"
      /><path style="fill:none;" d="M375.625 398 L375.625 401"
      /><path style="fill:none;" d="M407.25 398 L407.25 401"
      /><path style="fill:none;" d="M438.875 398 L438.875 401"
      /><path style="fill:none;" d="M470.5 398 L470.5 401"
      /><path style="fill:none;" d="M502.125 398 L502.125 401"
      /><path style="fill:none;" d="M533.75 398 L533.75 401"
      /><path style="fill:none;" d="M533.75 398 L91 398"
      /><text x="-1.1875" y="16.708" transform="translate(70,387)" style="stroke-linecap:square; shape-rendering:auto; stroke:none;" xml:space="preserve"
      >0</text
    ></g
    ><g style="text-rendering:geometricPrecision; font-size:18px; font-family:sans-serif;" transform="translate(43,216.75)"
    ><text x="-1.1875" xml:space="preserve" y="16.708" style="stroke:none;"
      >0.02</text
    ></g
    ><g style="text-rendering:geometricPrecision; font-size:18px; font-family:sans-serif;" transform="translate(42,46.5)"
    ><text x="-1.1875" xml:space="preserve" y="16.708" style="stroke:none;"
      >0.04</text
    ></g
    ><g style="text-rendering:geometricPrecision; font-size:18px; font-family:sans-serif;" transform="translate(43,301.875)"
    ><text x="-1.1875" xml:space="preserve" y="16.708" style="stroke:none;"
      >0.01</text
    ></g
    ><g style="text-rendering:geometricPrecision; font-size:18px; font-family:sans-serif;" transform="translate(43,131.625)"
    ><text x="-1.1875" xml:space="preserve" y="16.708" style="stroke:none;"
      >0.03</text
    ></g
    ><g style="text-rendering:geometricPrecision; font-size:18px; font-family:sans-serif;" transform="translate(32,344.4375)"
    ><text x="-1.1875" xml:space="preserve" y="16.708" style="stroke:none;"
      >0.005</text
    ></g
    ><g style="text-rendering:geometricPrecision; font-size:18px; font-family:sans-serif;" transform="translate(32,259.3125)"
    ><text x="-1.1875" xml:space="preserve" y="16.708" style="stroke:none;"
      >0.015</text
    ></g
    ><g style="text-rendering:geometricPrecision; font-size:18px; font-family:sans-serif;" transform="translate(32,174.1875)"
    ><text x="-1.1875" xml:space="preserve" y="16.708" style="stroke:none;"
      >0.025</text
    ></g
    ><g style="text-rendering:geometricPrecision; font-size:18px; font-family:sans-serif;" transform="translate(32,89.0625)"
    ><text x="-1.1875" xml:space="preserve" y="16.708" style="stroke:none;"
      >0.035</text
    ></g
    ><g style="text-rendering:geometricPrecision; font-size:18px; shape-rendering:crispEdges; font-family:sans-serif; stroke-linecap:butt;"
    ><path style="fill:none;" d="M91 398 L85 398"
      /><path style="fill:none;" d="M91 355.4375 L85 355.4375"
      /><path style="fill:none;" d="M91 312.875 L85 312.875"
      /><path style="fill:none;" d="M91 270.3125 L85 270.3125"
      /><path style="fill:none;" d="M91 227.75 L85 227.75"
      /><path style="fill:none;" d="M91 185.1875 L85 185.1875"
      /><path style="fill:none;" d="M91 142.625 L85 142.625"
      /><path style="fill:none;" d="M91 100.0625 L85 100.0625"
      /><path style="fill:none;" d="M91 57.5 L85 57.5"
      /><path style="fill:none;" d="M91 398 L88 398"
      /><path style="fill:none;" d="M91 389.4875 L88 389.4875"
      /><path style="fill:none;" d="M91 380.975 L88 380.975"
      /><path style="fill:none;" d="M91 372.4625 L88 372.4625"
      /><path style="fill:none;" d="M91 363.95 L88 363.95"
      /><path style="fill:none;" d="M91 355.4375 L88 355.4375"
      /><path style="fill:none;" d="M91 346.925 L88 346.925"
      /><path style="fill:none;" d="M91 338.4125 L88 338.4125"
      /><path style="fill:none;" d="M91 329.9 L88 329.9"
      /><path style="fill:none;" d="M91 321.3875 L88 321.3875"
      /><path style="fill:none;" d="M91 312.875 L88 312.875"
      /><path style="fill:none;" d="M91 304.3625 L88 304.3625"
      /><path style="fill:none;" d="M91 295.85 L88 295.85"
      /><path style="fill:none;" d="M91 287.3375 L88 287.3375"
      /><path style="fill:none;" d="M91 278.825 L88 278.825"
      /><path style="fill:none;" d="M91 270.3125 L88 270.3125"
      /><path style="fill:none;" d="M91 261.8 L88 261.8"
      /><path style="fill:none;" d="M91 253.2875 L88 253.2875"
      /><path style="fill:none;" d="M91 244.775 L88 244.775"
      /><path style="fill:none;" d="M91 236.2625 L88 236.2625"
      /><path style="fill:none;" d="M91 227.75 L88 227.75"
      /><path style="fill:none;" d="M91 219.2375 L88 219.2375"
      /><path style="fill:none;" d="M91 210.725 L88 210.725"
      /><path style="fill:none;" d="M91 202.2125 L88 202.2125"
      /><path style="fill:none;" d="M91 193.7 L88 193.7"
      /><path style="fill:none;" d="M91 185.1875 L88 185.1875"
      /><path style="fill:none;" d="M91 176.675 L88 176.675"
      /><path style="fill:none;" d="M91 168.1625 L88 168.1625"
      /><path style="fill:none;" d="M91 159.65 L88 159.65"
      /><path style="fill:none;" d="M91 151.1375 L88 151.1375"
      /><path style="fill:none;" d="M91 142.625 L88 142.625"
      /><path style="fill:none;" d="M91 134.1125 L88 134.1125"
      /><path style="fill:none;" d="M91 125.6 L88 125.6"
      /><path style="fill:none;" d="M91 117.0875 L88 117.0875"
      /><path style="fill:none;" d="M91 108.575 L88 108.575"
      /><path style="fill:none;" d="M91 100.0625 L88 100.0625"
      /><path style="fill:none;" d="M91 91.55 L88 91.55"
      /><path style="fill:none;" d="M91 83.0375 L88 83.0375"
      /><path style="fill:none;" d="M91 74.525 L88 74.525"
      /><path style="fill:none;" d="M91 66.0125 L88 66.0125"
      /><path style="fill:none;" d="M91 57.5 L88 57.5"
      /><path style="fill:none;" d="M91 57.5 L91 398"
      /><text x="0.8125" y="18.708" transform="translate(269.875,432)" style="stroke-linecap:square; shape-rendering:auto; stroke:none;" xml:space="preserve"
      >Saccades</text
    ></g
    ><g style="text-rendering:geometricPrecision; font-size:18px; font-family:sans-serif;" transform="translate(29,227.75) rotate(270) translate(-67,-26)"
    ><text x="0.2344" xml:space="preserve" y="18.708" style="stroke:none;"
      >Neural activity</text
    ></g
    ><g style="stroke-linecap:butt; font-size:18px; fill:red; text-rendering:geometricPrecision; font-family:sans-serif; shape-rendering:crispEdges; stroke:red;"
    ><path d="M122.625 398 L154.25 398 L185.875 397.8553 L217.5 397.8553 L249.125 397.8553 L280.75 397.8553 L312.375 397.8553 L344 397.8553 L375.625 397.8553 L407.25 397.8553 L438.875 397.8553 L470.5 397.8553 L502.125 397.8553 L533.75 397.8553" style="fill:none; clip-path:url(#clipPath1);"
      /><path d="M-3 0 L3 0" style="fill:none; shape-rendering:auto; clip-path:url(#clipPath2);" transform="translate(122.625,398)"
      /><path d="M0 -3 L0 3" style="fill:none; shape-rendering:auto; clip-path:url(#clipPath2);" transform="translate(122.625,398)"
      /><path d="M-2 -2 L2 2" style="fill:none; shape-rendering:auto; clip-path:url(#clipPath2);" transform="translate(122.625,398)"
      /><path d="M-2 2 L2 -2" style="fill:none; shape-rendering:auto; clip-path:url(#clipPath2);" transform="translate(122.625,398)"
    /></g
    ><g transform="translate(122.625,398)" style="font-size:18px; stroke-linecap:butt; fill:red; text-rendering:geometricPrecision; font-family:sans-serif; stroke:red;"
    ><path d="M-3 0 L3 0" style="fill:none; clip-path:url(#clipPath3);"
      /><path d="M0 -3 L0 3" style="fill:none; clip-path:url(#clipPath3);"
      /><path d="M-2 -2 L2 2" style="fill:none; clip-path:url(#clipPath3);"
      /><path d="M-2 2 L2 -2" style="fill:none; clip-path:url(#clipPath3);"
    /></g
    ><g transform="translate(122.625,398)" style="font-size:18px; stroke-linecap:butt; fill:red; text-rendering:geometricPrecision; font-family:sans-serif; stroke:red;"
    ><path d="M-3 0 L3 0" style="fill:none; clip-path:url(#clipPath4);"
      /><path d="M0 -3 L0 3" style="fill:none; clip-path:url(#clipPath4);"
      /><path d="M-2 -2 L2 2" style="fill:none; clip-path:url(#clipPath4);"
      /><path d="M-2 2 L2 -2" style="fill:none; clip-path:url(#clipPath4);"
    /></g
    ><g transform="translate(154.25,398)" style="font-size:18px; stroke-linecap:butt; fill:red; text-rendering:geometricPrecision; font-family:sans-serif; stroke:red;"
    ><path d="M-3 0 L3 0" style="fill:none; clip-path:url(#clipPath2);"
      /><path d="M0 -3 L0 3" style="fill:none; clip-path:url(#clipPath2);"
      /><path d="M-2 -2 L2 2" style="fill:none; clip-path:url(#clipPath2);"
      /><path d="M-2 2 L2 -2" style="fill:none; clip-path:url(#clipPath2);"
    /></g
    ><g transform="translate(154.25,398)" style="font-size:18px; stroke-linecap:butt; fill:red; text-rendering:geometricPrecision; font-family:sans-serif; stroke:red;"
    ><path d="M-3 0 L3 0" style="fill:none; clip-path:url(#clipPath3);"
      /><path d="M0 -3 L0 3" style="fill:none; clip-path:url(#clipPath3);"
      /><path d="M-2 -2 L2 2" style="fill:none; clip-path:url(#clipPath3);"
      /><path d="M-2 2 L2 -2" style="fill:none; clip-path:url(#clipPath3);"
    /></g
    ><g transform="translate(154.25,398)" style="font-size:18px; stroke-linecap:butt; fill:red; text-rendering:geometricPrecision; font-family:sans-serif; stroke:red;"
    ><path d="M-3 0 L3 0" style="fill:none; clip-path:url(#clipPath4);"
      /><path d="M0 -3 L0 3" style="fill:none; clip-path:url(#clipPath4);"
      /><path d="M-2 -2 L2 2" style="fill:none; clip-path:url(#clipPath4);"
      /><path d="M-2 2 L2 -2" style="fill:none; clip-path:url(#clipPath4);"
    /></g
    ><g transform="translate(185.875,397.8553)" style="font-size:18px; stroke-linecap:butt; fill:red; text-rendering:geometricPrecision; font-family:sans-serif; stroke:red;"
    ><path d="M-3 0 L3 0" style="fill:none; clip-path:url(#clipPath5);"
      /><path d="M0 -3 L0 3" style="fill:none; clip-path:url(#clipPath5);"
      /><path d="M-2 -2 L2 2" style="fill:none; clip-path:url(#clipPath5);"
      /><path d="M-2 2 L2 -2" style="fill:none; clip-path:url(#clipPath5);"
    /></g
    ><g transform="translate(185.875,397.8553)" style="font-size:18px; stroke-linecap:butt; fill:red; text-rendering:geometricPrecision; font-family:sans-serif; stroke:red;"
    ><path d="M-3 0 L3 0" style="fill:none; clip-path:url(#clipPath6);"
      /><path d="M0 -3 L0 3" style="fill:none; clip-path:url(#clipPath6);"
      /><path d="M-2 -2 L2 2" style="fill:none; clip-path:url(#clipPath6);"
      /><path d="M-2 2 L2 -2" style="fill:none; clip-path:url(#clipPath6);"
    /></g
    ><g transform="translate(185.875,397.8553)" style="font-size:18px; stroke-linecap:butt; fill:red; text-rendering:geometricPrecision; font-family:sans-serif; stroke:red;"
    ><path d="M-3 0 L3 0" style="fill:none; clip-path:url(#clipPath7);"
      /><path d="M0 -3 L0 3" style="fill:none; clip-path:url(#clipPath7);"
      /><path d="M-2 -2 L2 2" style="fill:none; clip-path:url(#clipPath7);"
      /><path d="M-2 2 L2 -2" style="fill:none; clip-path:url(#clipPath7);"
    /></g
    ><g transform="translate(217.5,397.8553)" style="font-size:18px; stroke-linecap:butt; fill:red; text-rendering:geometricPrecision; font-family:sans-serif; stroke:red;"
    ><path d="M-3 0 L3 0" style="fill:none; clip-path:url(#clipPath5);"
      /><path d="M0 -3 L0 3" style="fill:none; clip-path:url(#clipPath5);"
      /><path d="M-2 -2 L2 2" style="fill:none; clip-path:url(#clipPath5);"
      /><path d="M-2 2 L2 -2" style="fill:none; clip-path:url(#clipPath5);"
    /></g
    ><g transform="translate(217.5,397.8553)" style="font-size:18px; stroke-linecap:butt; fill:red; text-rendering:geometricPrecision; font-family:sans-serif; stroke:red;"
    ><path d="M-3 0 L3 0" style="fill:none; clip-path:url(#clipPath6);"
      /><path d="M0 -3 L0 3" style="fill:none; clip-path:url(#clipPath6);"
      /><path d="M-2 -2 L2 2" style="fill:none; clip-path:url(#clipPath6);"
      /><path d="M-2 2 L2 -2" style="fill:none; clip-path:url(#clipPath6);"
    /></g
    ><g transform="translate(217.5,397.8553)" style="font-size:18px; stroke-linecap:butt; fill:red; text-rendering:geometricPrecision; font-family:sans-serif; stroke:red;"
    ><path d="M-3 0 L3 0" style="fill:none; clip-path:url(#clipPath7);"
      /><path d="M0 -3 L0 3" style="fill:none; clip-path:url(#clipPath7);"
      /><path d="M-2 -2 L2 2" style="fill:none; clip-path:url(#clipPath7);"
      /><path d="M-2 2 L2 -2" style="fill:none; clip-path:url(#clipPath7);"
    /></g
    ><g transform="translate(249.125,397.8553)" style="font-size:18px; stroke-linecap:butt; fill:red; text-rendering:geometricPrecision; font-family:sans-serif; stroke:red;"
    ><path d="M-3 0 L3 0" style="fill:none; clip-path:url(#clipPath5);"
      /><path d="M0 -3 L0 3" style="fill:none; clip-path:url(#clipPath5);"
      /><path d="M-2 -2 L2 2" style="fill:none; clip-path:url(#clipPath5);"
      /><path d="M-2 2 L2 -2" style="fill:none; clip-path:url(#clipPath5);"
    /></g
    ><g transform="translate(249.125,397.8553)" style="font-size:18px; stroke-linecap:butt; fill:red; text-rendering:geometricPrecision; font-family:sans-serif; stroke:red;"
    ><path d="M-3 0 L3 0" style="fill:none; clip-path:url(#clipPath6);"
      /><path d="M0 -3 L0 3" style="fill:none; clip-path:url(#clipPath6);"
      /><path d="M-2 -2 L2 2" style="fill:none; clip-path:url(#clipPath6);"
      /><path d="M-2 2 L2 -2" style="fill:none; clip-path:url(#clipPath6);"
    /></g
    ><g transform="translate(249.125,397.8553)" style="font-size:18px; stroke-linecap:butt; fill:red; text-rendering:geometricPrecision; font-family:sans-serif; stroke:red;"
    ><path d="M-3 0 L3 0" style="fill:none; clip-path:url(#clipPath7);"
      /><path d="M0 -3 L0 3" style="fill:none; clip-path:url(#clipPath7);"
      /><path d="M-2 -2 L2 2" style="fill:none; clip-path:url(#clipPath7);"
      /><path d="M-2 2 L2 -2" style="fill:none; clip-path:url(#clipPath7);"
    /></g
    ><g transform="translate(280.75,397.8553)" style="font-size:18px; stroke-linecap:butt; fill:red; text-rendering:geometricPrecision; font-family:sans-serif; stroke:red;"
    ><path d="M-3 0 L3 0" style="fill:none; clip-path:url(#clipPath5);"
      /><path d="M0 -3 L0 3" style="fill:none; clip-path:url(#clipPath5);"
      /><path d="M-2 -2 L2 2" style="fill:none; clip-path:url(#clipPath5);"
      /><path d="M-2 2 L2 -2" style="fill:none; clip-path:url(#clipPath5);"
    /></g
    ><g transform="translate(280.75,397.8553)" style="font-size:18px; stroke-linecap:butt; fill:red; text-rendering:geometricPrecision; font-family:sans-serif; stroke:red;"
    ><path d="M-3 0 L3 0" style="fill:none; clip-path:url(#clipPath6);"
      /><path d="M0 -3 L0 3" style="fill:none; clip-path:url(#clipPath6);"
      /><path d="M-2 -2 L2 2" style="fill:none; clip-path:url(#clipPath6);"
      /><path d="M-2 2 L2 -2" style="fill:none; clip-path:url(#clipPath6);"
    /></g
    ><g transform="translate(280.75,397.8553)" style="font-size:18px; stroke-linecap:butt; fill:red; text-rendering:geometricPrecision; font-family:sans-serif; stroke:red;"
    ><path d="M-3 0 L3 0" style="fill:none; clip-path:url(#clipPath7);"
      /><path d="M0 -3 L0 3" style="fill:none; clip-path:url(#clipPath7);"
      /><path d="M-2 -2 L2 2" style="fill:none; clip-path:url(#clipPath7);"
      /><path d="M-2 2 L2 -2" style="fill:none; clip-path:url(#clipPath7);"
    /></g
    ><g transform="translate(312.375,397.8553)" style="font-size:18px; stroke-linecap:butt; fill:red; text-rendering:geometricPrecision; font-family:sans-serif; stroke:red;"
    ><path d="M-3 0 L3 0" style="fill:none; clip-path:url(#clipPath5);"
      /><path d="M0 -3 L0 3" style="fill:none; clip-path:url(#clipPath5);"
      /><path d="M-2 -2 L2 2" style="fill:none; clip-path:url(#clipPath5);"
      /><path d="M-2 2 L2 -2" style="fill:none; clip-path:url(#clipPath5);"
    /></g
    ><g transform="translate(312.375,397.8553)" style="font-size:18px; stroke-linecap:butt; fill:red; text-rendering:geometricPrecision; font-family:sans-serif; stroke:red;"
    ><path d="M-3 0 L3 0" style="fill:none; clip-path:url(#clipPath6);"
      /><path d="M0 -3 L0 3" style="fill:none; clip-path:url(#clipPath6);"
      /><path d="M-2 -2 L2 2" style="fill:none; clip-path:url(#clipPath6);"
      /><path d="M-2 2 L2 -2" style="fill:none; clip-path:url(#clipPath6);"
    /></g
    ><g transform="translate(312.375,397.8553)" style="font-size:18px; stroke-linecap:butt; fill:red; text-rendering:geometricPrecision; font-family:sans-serif; stroke:red;"
    ><path d="M-3 0 L3 0" style="fill:none; clip-path:url(#clipPath7);"
      /><path d="M0 -3 L0 3" style="fill:none; clip-path:url(#clipPath7);"
      /><path d="M-2 -2 L2 2" style="fill:none; clip-path:url(#clipPath7);"
      /><path d="M-2 2 L2 -2" style="fill:none; clip-path:url(#clipPath7);"
    /></g
    ><g transform="translate(344,397.8553)" style="font-size:18px; stroke-linecap:butt; fill:red; text-rendering:geometricPrecision; font-family:sans-serif; stroke:red;"
    ><path d="M-3 0 L3 0" style="fill:none; clip-path:url(#clipPath5);"
      /><path d="M0 -3 L0 3" style="fill:none; clip-path:url(#clipPath5);"
      /><path d="M-2 -2 L2 2" style="fill:none; clip-path:url(#clipPath5);"
      /><path d="M-2 2 L2 -2" style="fill:none; clip-path:url(#clipPath5);"
    /></g
    ><g transform="translate(344,397.8553)" style="font-size:18px; stroke-linecap:butt; fill:red; text-rendering:geometricPrecision; font-family:sans-serif; stroke:red;"
    ><path d="M-3 0 L3 0" style="fill:none; clip-path:url(#clipPath6);"
      /><path d="M0 -3 L0 3" style="fill:none; clip-path:url(#clipPath6);"
      /><path d="M-2 -2 L2 2" style="fill:none; clip-path:url(#clipPath6);"
      /><path d="M-2 2 L2 -2" style="fill:none; clip-path:url(#clipPath6);"
    /></g
    ><g transform="translate(344,397.8553)" style="font-size:18px; stroke-linecap:butt; fill:red; text-rendering:geometricPrecision; font-family:sans-serif; stroke:red;"
    ><path d="M-3 0 L3 0" style="fill:none; clip-path:url(#clipPath7);"
      /><path d="M0 -3 L0 3" style="fill:none; clip-path:url(#clipPath7);"
      /><path d="M-2 -2 L2 2" style="fill:none; clip-path:url(#clipPath7);"
      /><path d="M-2 2 L2 -2" style="fill:none; clip-path:url(#clipPath7);"
    /></g
    ><g transform="translate(375.625,397.8553)" style="font-size:18px; stroke-linecap:butt; fill:red; text-rendering:geometricPrecision; font-family:sans-serif; stroke:red;"
    ><path d="M-3 0 L3 0" style="fill:none; clip-path:url(#clipPath5);"
      /><path d="M0 -3 L0 3" style="fill:none; clip-path:url(#clipPath5);"
      /><path d="M-2 -2 L2 2" style="fill:none; clip-path:url(#clipPath5);"
      /><path d="M-2 2 L2 -2" style="fill:none; clip-path:url(#clipPath5);"
    /></g
    ><g transform="translate(375.625,397.8553)" style="font-size:18px; stroke-linecap:butt; fill:red; text-rendering:geometricPrecision; font-family:sans-serif; stroke:red;"
    ><path d="M-3 0 L3 0" style="fill:none; clip-path:url(#clipPath6);"
      /><path d="M0 -3 L0 3" style="fill:none; clip-path:url(#clipPath6);"
      /><path d="M-2 -2 L2 2" style="fill:none; clip-path:url(#clipPath6);"
      /><path d="M-2 2 L2 -2" style="fill:none; clip-path:url(#clipPath6);"
    /></g
    ><g transform="translate(375.625,397.8553)" style="font-size:18px; stroke-linecap:butt; fill:red; text-rendering:geometricPrecision; font-family:sans-serif; stroke:red;"
    ><path d="M-3 0 L3 0" style="fill:none; clip-path:url(#clipPath7);"
      /><path d="M0 -3 L0 3" style="fill:none; clip-path:url(#clipPath7);"
      /><path d="M-2 -2 L2 2" style="fill:none; clip-path:url(#clipPath7);"
      /><path d="M-2 2 L2 -2" style="fill:none; clip-path:url(#clipPath7);"
    /></g
    ><g transform="translate(407.25,397.8553)" style="font-size:18px; stroke-linecap:butt; fill:red; text-rendering:geometricPrecision; font-family:sans-serif; stroke:red;"
    ><path d="M-3 0 L3 0" style="fill:none; clip-path:url(#clipPath5);"
      /><path d="M0 -3 L0 3" style="fill:none; clip-path:url(#clipPath5);"
      /><path d="M-2 -2 L2 2" style="fill:none; clip-path:url(#clipPath5);"
      /><path d="M-2 2 L2 -2" style="fill:none; clip-path:url(#clipPath5);"
    /></g
    ><g transform="translate(407.25,397.8553)" style="font-size:18px; stroke-linecap:butt; fill:red; text-rendering:geometricPrecision; font-family:sans-serif; stroke:red;"
    ><path d="M-3 0 L3 0" style="fill:none; clip-path:url(#clipPath6);"
      /><path d="M0 -3 L0 3" style="fill:none; clip-path:url(#clipPath6);"
      /><path d="M-2 -2 L2 2" style="fill:none; clip-path:url(#clipPath6);"
      /><path d="M-2 2 L2 -2" style="fill:none; clip-path:url(#clipPath6);"
    /></g
    ><g transform="translate(407.25,397.8553)" style="font-size:18px; stroke-linecap:butt; fill:red; text-rendering:geometricPrecision; font-family:sans-serif; stroke:red;"
    ><path d="M-3 0 L3 0" style="fill:none; clip-path:url(#clipPath7);"
      /><path d="M0 -3 L0 3" style="fill:none; clip-path:url(#clipPath7);"
      /><path d="M-2 -2 L2 2" style="fill:none; clip-path:url(#clipPath7);"
      /><path d="M-2 2 L2 -2" style="fill:none; clip-path:url(#clipPath7);"
    /></g
    ><g transform="translate(438.875,397.8553)" style="font-size:18px; stroke-linecap:butt; fill:red; text-rendering:geometricPrecision; font-family:sans-serif; stroke:red;"
    ><path d="M-3 0 L3 0" style="fill:none; clip-path:url(#clipPath5);"
      /><path d="M0 -3 L0 3" style="fill:none; clip-path:url(#clipPath5);"
      /><path d="M-2 -2 L2 2" style="fill:none; clip-path:url(#clipPath5);"
      /><path d="M-2 2 L2 -2" style="fill:none; clip-path:url(#clipPath5);"
    /></g
    ><g transform="translate(438.875,397.8553)" style="font-size:18px; stroke-linecap:butt; fill:red; text-rendering:geometricPrecision; font-family:sans-serif; stroke:red;"
    ><path d="M-3 0 L3 0" style="fill:none; clip-path:url(#clipPath6);"
      /><path d="M0 -3 L0 3" style="fill:none; clip-path:url(#clipPath6);"
      /><path d="M-2 -2 L2 2" style="fill:none; clip-path:url(#clipPath6);"
      /><path d="M-2 2 L2 -2" style="fill:none; clip-path:url(#clipPath6);"
    /></g
    ><g transform="translate(438.875,397.8553)" style="font-size:18px; stroke-linecap:butt; fill:red; text-rendering:geometricPrecision; font-family:sans-serif; stroke:red;"
    ><path d="M-3 0 L3 0" style="fill:none; clip-path:url(#clipPath7);"
      /><path d="M0 -3 L0 3" style="fill:none; clip-path:url(#clipPath7);"
      /><path d="M-2 -2 L2 2" style="fill:none; clip-path:url(#clipPath7);"
      /><path d="M-2 2 L2 -2" style="fill:none; clip-path:url(#clipPath7);"
    /></g
    ><g transform="translate(470.5,397.8553)" style="font-size:18px; stroke-linecap:butt; fill:red; text-rendering:geometricPrecision; font-family:sans-serif; stroke:red;"
    ><path d="M-3 0 L3 0" style="fill:none; clip-path:url(#clipPath5);"
      /><path d="M0 -3 L0 3" style="fill:none; clip-path:url(#clipPath5);"
      /><path d="M-2 -2 L2 2" style="fill:none; clip-path:url(#clipPath5);"
      /><path d="M-2 2 L2 -2" style="fill:none; clip-path:url(#clipPath5);"
    /></g
    ><g transform="translate(470.5,397.8553)" style="font-size:18px; stroke-linecap:butt; fill:red; text-rendering:geometricPrecision; font-family:sans-serif; stroke:red;"
    ><path d="M-3 0 L3 0" style="fill:none; clip-path:url(#clipPath6);"
      /><path d="M0 -3 L0 3" style="fill:none; clip-path:url(#clipPath6);"
      /><path d="M-2 -2 L2 2" style="fill:none; clip-path:url(#clipPath6);"
      /><path d="M-2 2 L2 -2" style="fill:none; clip-path:url(#clipPath6);"
    /></g
    ><g transform="translate(470.5,397.8553)" style="font-size:18px; stroke-linecap:butt; fill:red; text-rendering:geometricPrecision; font-family:sans-serif; stroke:red;"
    ><path d="M-3 0 L3 0" style="fill:none; clip-path:url(#clipPath7);"
      /><path d="M0 -3 L0 3" style="fill:none; clip-path:url(#clipPath7);"
      /><path d="M-2 -2 L2 2" style="fill:none; clip-path:url(#clipPath7);"
      /><path d="M-2 2 L2 -2" style="fill:none; clip-path:url(#clipPath7);"
    /></g
    ><g transform="translate(502.125,397.8553)" style="font-size:18px; stroke-linecap:butt; fill:red; text-rendering:geometricPrecision; font-family:sans-serif; stroke:red;"
    ><path d="M-3 0 L3 0" style="fill:none; clip-path:url(#clipPath5);"
      /><path d="M0 -3 L0 3" style="fill:none; clip-path:url(#clipPath5);"
      /><path d="M-2 -2 L2 2" style="fill:none; clip-path:url(#clipPath5);"
      /><path d="M-2 2 L2 -2" style="fill:none; clip-path:url(#clipPath5);"
    /></g
    ><g transform="translate(502.125,397.8553)" style="font-size:18px; stroke-linecap:butt; fill:red; text-rendering:geometricPrecision; font-family:sans-serif; stroke:red;"
    ><path d="M-3 0 L3 0" style="fill:none; clip-path:url(#clipPath6);"
      /><path d="M0 -3 L0 3" style="fill:none; clip-path:url(#clipPath6);"
      /><path d="M-2 -2 L2 2" style="fill:none; clip-path:url(#clipPath6);"
      /><path d="M-2 2 L2 -2" style="fill:none; clip-path:url(#clipPath6);"
    /></g
    ><g transform="translate(502.125,397.8553)" style="font-size:18px; stroke-linecap:butt; fill:red; text-rendering:geometricPrecision; font-family:sans-serif; stroke:red;"
    ><path d="M-3 0 L3 0" style="fill:none; clip-path:url(#clipPath7);"
      /><path d="M0 -3 L0 3" style="fill:none; clip-path:url(#clipPath7);"
      /><path d="M-2 -2 L2 2" style="fill:none; clip-path:url(#clipPath7);"
      /><path d="M-2 2 L2 -2" style="fill:none; clip-path:url(#clipPath7);"
    /></g
    ><g transform="translate(533.75,397.8553)" style="font-size:18px; stroke-linecap:butt; fill:red; text-rendering:geometricPrecision; font-family:sans-serif; stroke:red;"
    ><path d="M-3 0 L3 0" style="fill:none; clip-path:url(#clipPath8);"
      /><path d="M0 -3 L0 3" style="fill:none; clip-path:url(#clipPath8);"
      /><path d="M-2 -2 L2 2" style="fill:none; clip-path:url(#clipPath8);"
      /><path d="M-2 2 L2 -2" style="fill:none; clip-path:url(#clipPath8);"
    /></g
    ><g transform="translate(533.75,397.8553)" style="font-size:18px; stroke-linecap:butt; fill:red; text-rendering:geometricPrecision; font-family:sans-serif; stroke:red;"
    ><path d="M-3 0 L3 0" style="fill:none; clip-path:url(#clipPath9);"
      /><path d="M0 -3 L0 3" style="fill:none; clip-path:url(#clipPath9);"
      /><path d="M-2 -2 L2 2" style="fill:none; clip-path:url(#clipPath9);"
      /><path d="M-2 2 L2 -2" style="fill:none; clip-path:url(#clipPath9);"
    /></g
    ><g transform="translate(533.75,397.8553)" style="font-size:18px; stroke-linecap:butt; fill:red; text-rendering:geometricPrecision; font-family:sans-serif; stroke:red;"
    ><path d="M-3 0 L3 0" style="fill:none; clip-path:url(#clipPath10);"
      /><path d="M0 -3 L0 3" style="fill:none; clip-path:url(#clipPath10);"
      /><path d="M-2 -2 L2 2" style="fill:none; clip-path:url(#clipPath10);"
      /><path d="M-2 2 L2 -2" style="fill:none; clip-path:url(#clipPath10);"
    /></g
    ><g transform="translate(533.75,397.8553)" style="font-size:18px; stroke-linecap:butt; fill:red; text-rendering:geometricPrecision; font-family:sans-serif; stroke:red;"
    ><path d="M-3 0 L3 0" style="fill:none; clip-path:url(#clipPath11);"
      /><path d="M0 -3 L0 3" style="fill:none; clip-path:url(#clipPath11);"
      /><path d="M-2 -2 L2 2" style="fill:none; clip-path:url(#clipPath11);"
      /><path d="M-2 2 L2 -2" style="fill:none; clip-path:url(#clipPath11);"
    /></g
    ><g style="stroke-linecap:butt; font-size:18px; fill:lime; text-rendering:geometricPrecision; font-family:sans-serif; shape-rendering:crispEdges; stroke-dasharray:11,5; stroke:lime;"
    ><path d="M122.625 398 L154.25 398 L185.875 397.8553 L217.5 397.8553 L249.125 397.8553 L280.75 397.8553 L312.375 397.8553 L344 397.8553 L375.625 397.8553 L407.25 397.8553 L438.875 397.8553 L470.5 397.8553 L502.125 397.8553 L533.75 397.8553" style="fill:none; clip-path:url(#clipPath1);"
      /><path d="M122.625 398 L154.25 398 L185.875 327.8059 L217.5 320.3149 L249.125 320.3149 L280.75 320.3149 L312.375 320.3149 L344 320.3149 L375.625 320.3149 L407.25 320.3149 L438.875 320.3149 L470.5 320.3149 L502.125 320.3149 L533.75 244.5622" style="fill:none; stroke-dasharray:none; clip-path:url(#clipPath1); stroke:blue;"
    /></g
    ><g transform="translate(122.625,398)" style="font-size:18px; stroke-linecap:butt; fill:blue; text-rendering:geometricPrecision; font-family:sans-serif; stroke:blue;"
    ><path d="M-3 0 L3 0" style="fill:none; clip-path:url(#clipPath2);"
      /><path d="M0 -3 L0 3" style="fill:none; clip-path:url(#clipPath2);"
    /></g
    ><g transform="translate(122.625,398)" style="font-size:18px; stroke-linecap:butt; fill:blue; text-rendering:geometricPrecision; font-family:sans-serif; stroke:blue;"
    ><path d="M-3 0 L3 0" style="fill:none; clip-path:url(#clipPath3);"
      /><path d="M0 -3 L0 3" style="fill:none; clip-path:url(#clipPath3);"
    /></g
    ><g transform="translate(122.625,398)" style="font-size:18px; stroke-linecap:butt; fill:blue; text-rendering:geometricPrecision; font-family:sans-serif; stroke:blue;"
    ><path d="M-3 0 L3 0" style="fill:none; clip-path:url(#clipPath4);"
      /><path d="M0 -3 L0 3" style="fill:none; clip-path:url(#clipPath4);"
    /></g
    ><g transform="translate(154.25,398)" style="font-size:18px; stroke-linecap:butt; fill:blue; text-rendering:geometricPrecision; font-family:sans-serif; stroke:blue;"
    ><path d="M-3 0 L3 0" style="fill:none; clip-path:url(#clipPath2);"
      /><path d="M0 -3 L0 3" style="fill:none; clip-path:url(#clipPath2);"
    /></g
    ><g transform="translate(154.25,398)" style="font-size:18px; stroke-linecap:butt; fill:blue; text-rendering:geometricPrecision; font-family:sans-serif; stroke:blue;"
    ><path d="M-3 0 L3 0" style="fill:none; clip-path:url(#clipPath3);"
      /><path d="M0 -3 L0 3" style="fill:none; clip-path:url(#clipPath3);"
    /></g
    ><g transform="translate(154.25,398)" style="font-size:18px; stroke-linecap:butt; fill:blue; text-rendering:geometricPrecision; font-family:sans-serif; stroke:blue;"
    ><path d="M-3 0 L3 0" style="fill:none; clip-path:url(#clipPath4);"
      /><path d="M0 -3 L0 3" style="fill:none; clip-path:url(#clipPath4);"
    /></g
    ><g transform="translate(185.875,327.8059)" style="font-size:18px; stroke-linecap:butt; fill:blue; text-rendering:geometricPrecision; font-family:sans-serif; stroke:blue;"
    ><path style="fill:none;" d="M-3 0 L3 0"
      /><path style="fill:none;" d="M0 -3 L0 3"
    /></g
    ><g transform="translate(217.5,320.3149)" style="font-size:18px; stroke-linecap:butt; fill:blue; text-rendering:geometricPrecision; font-family:sans-serif; stroke:blue;"
    ><path style="fill:none;" d="M-3 0 L3 0"
      /><path style="fill:none;" d="M0 -3 L0 3"
    /></g
    ><g transform="translate(249.125,320.3149)" style="font-size:18px; stroke-linecap:butt; fill:blue; text-rendering:geometricPrecision; font-family:sans-serif; stroke:blue;"
    ><path style="fill:none;" d="M-3 0 L3 0"
      /><path style="fill:none;" d="M0 -3 L0 3"
    /></g
    ><g transform="translate(280.75,320.3149)" style="font-size:18px; stroke-linecap:butt; fill:blue; text-rendering:geometricPrecision; font-family:sans-serif; stroke:blue;"
    ><path style="fill:none;" d="M-3 0 L3 0"
      /><path style="fill:none;" d="M0 -3 L0 3"
    /></g
    ><g transform="translate(312.375,320.3149)" style="font-size:18px; stroke-linecap:butt; fill:blue; text-rendering:geometricPrecision; font-family:sans-serif; stroke:blue;"
    ><path style="fill:none;" d="M-3 0 L3 0"
      /><path style="fill:none;" d="M0 -3 L0 3"
    /></g
    ><g transform="translate(344,320.3149)" style="font-size:18px; stroke-linecap:butt; fill:blue; text-rendering:geometricPrecision; font-family:sans-serif; stroke:blue;"
    ><path style="fill:none;" d="M-3 0 L3 0"
      /><path style="fill:none;" d="M0 -3 L0 3"
    /></g
    ><g transform="translate(375.625,320.3149)" style="font-size:18px; stroke-linecap:butt; fill:blue; text-rendering:geometricPrecision; font-family:sans-serif; stroke:blue;"
    ><path style="fill:none;" d="M-3 0 L3 0"
      /><path style="fill:none;" d="M0 -3 L0 3"
    /></g
    ><g transform="translate(407.25,320.3149)" style="font-size:18px; stroke-linecap:butt; fill:blue; text-rendering:geometricPrecision; font-family:sans-serif; stroke:blue;"
    ><path style="fill:none;" d="M-3 0 L3 0"
      /><path style="fill:none;" d="M0 -3 L0 3"
    /></g
    ><g transform="translate(438.875,320.3149)" style="font-size:18px; stroke-linecap:butt; fill:blue; text-rendering:geometricPrecision; font-family:sans-serif; stroke:blue;"
    ><path style="fill:none;" d="M-3 0 L3 0"
      /><path style="fill:none;" d="M0 -3 L0 3"
    /></g
    ><g transform="translate(470.5,320.3149)" style="font-size:18px; stroke-linecap:butt; fill:blue; text-rendering:geometricPrecision; font-family:sans-serif; stroke:blue;"
    ><path style="fill:none;" d="M-3 0 L3 0"
      /><path style="fill:none;" d="M0 -3 L0 3"
    /></g
    ><g transform="translate(502.125,320.3149)" style="font-size:18px; stroke-linecap:butt; fill:blue; text-rendering:geometricPrecision; font-family:sans-serif; stroke:blue;"
    ><path style="fill:none;" d="M-3 0 L3 0"
      /><path style="fill:none;" d="M0 -3 L0 3"
    /></g
    ><g transform="translate(533.75,244.5622)" style="font-size:18px; stroke-linecap:butt; fill:blue; text-rendering:geometricPrecision; font-family:sans-serif; stroke:blue;"
    ><path d="M-3 0 L3 0" style="fill:none; clip-path:url(#clipPath12);"
      /><path d="M0 -3 L0 3" style="fill:none; clip-path:url(#clipPath12);"
    /></g
    ><g transform="translate(533.75,244.5622)" style="font-size:18px; stroke-linecap:butt; fill:blue; text-rendering:geometricPrecision; font-family:sans-serif; stroke:blue;"
    ><path d="M-3 0 L3 0" style="fill:none; clip-path:url(#clipPath13);"
      /><path d="M0 -3 L0 3" style="fill:none; clip-path:url(#clipPath13);"
    /></g
    ><g transform="translate(533.75,244.5622)" style="font-size:18px; stroke-linecap:butt; fill:blue; text-rendering:geometricPrecision; font-family:sans-serif; stroke:blue;"
    ><path d="M-3 0 L3 0" style="fill:none; clip-path:url(#clipPath8);"
      /><path d="M0 -3 L0 3" style="fill:none; clip-path:url(#clipPath8);"
    /></g
    ><g style="stroke-linecap:butt; font-size:18px; fill:aqua; text-rendering:geometricPrecision; font-family:sans-serif; shape-rendering:crispEdges; stroke:aqua;"
    ><path d="M122.625 398 L154.25 398 L185.875 397.8553 L217.5 397.8553 L249.125 397.8553 L280.75 397.8553 L312.375 397.8553 L344 397.8553 L375.625 397.8553 L407.25 397.8553 L438.875 397.8553 L470.5 397.8553 L502.125 397.8553 L533.75 397.8553" style="fill:none; clip-path:url(#clipPath1);"
      /><path d="M122.625 398 L154.25 398 L185.875 397.8553 L217.5 397.8553 L249.125 397.8553 L280.75 397.8553 L312.375 397.8553 L344 397.8553 L375.625 397.8553 L407.25 397.8553 L438.875 397.8553 L470.5 397.8553 L502.125 397.8553 L533.75 397.8553" style="fill:none; clip-path:url(#clipPath1); stroke:fuchsia;"
      /><path d="M91 398 L91 57.5 L91 57.5 L533.75 57.5 L533.75 398 L533.75 398 L91 398" style="fill:none; stroke:black;"
      /><path d="M533.75 57.5 L91 57.5" style="fill:none; stroke:black;"
      /><path d="M533.75 57.5 L533.75 398" style="fill:none; stroke:black;"
      /><path d="M533.75 57.5 L533.75 57.5" style="fill:none; stroke:black;"
    /></g
    ><g style="stroke-linecap:butt; font-size:18px; fill:rgb(204,204,204); text-rendering:geometricPrecision; font-family:sans-serif; stroke-linejoin:bevel; shape-rendering:crispEdges; stroke:rgb(204,204,204); stroke-width:0;"
    ><path style="stroke:none;" d="M96.5344 144.715 L213.4125 144.715 L213.4125 60.905 Z"
      /><path style="stroke:none;" d="M96.5344 144.715 L213.4125 60.905 L96.5344 60.905 Z"
    /></g
    ><g style="text-rendering:geometricPrecision; font-size:18px; shape-rendering:crispEdges; font-family:sans-serif; stroke-linecap:butt;"
    ><path style="fill:none;" d="M96.5344 144.715 L213.4125 144.715"
      /><path style="fill:none;" d="M213.4125 144.715 L213.4125 60.905"
      /><path style="fill:none;" d="M213.4125 60.905 L96.5344 60.905"
      /><path style="fill:none;" d="M96.5344 60.905 L96.5344 144.715"
      /><path d="M102.0688 132.01 L124.2063 132.01 L146.3438 132.01" style="fill:none; stroke:fuchsia;"
      /><path d="M102.0688 117.41 L124.2063 117.41 L146.3438 117.41" style="fill:none; stroke:aqua;"
      /><path d="M102.0688 102.81 L124.2063 102.81 L146.3438 102.81" style="fill:none; stroke:blue;"
      /><path d="M-3 0 L3 0" style="fill:none; shape-rendering:auto; stroke:blue;" transform="translate(102.0688,102.81)"
      /><path d="M0 -3 L0 3" style="fill:none; shape-rendering:auto; stroke:blue;" transform="translate(102.0688,102.81)"
    /></g
    ><g transform="translate(124.2063,102.81)" style="font-size:18px; stroke-linecap:butt; fill:blue; text-rendering:geometricPrecision; font-family:sans-serif; stroke:blue;"
    ><path style="fill:none;" d="M-3 0 L3 0"
      /><path style="fill:none;" d="M0 -3 L0 3"
    /></g
    ><g transform="translate(146.3438,102.81)" style="font-size:18px; stroke-linecap:butt; fill:blue; text-rendering:geometricPrecision; font-family:sans-serif; stroke:blue;"
    ><path style="fill:none;" d="M-3 0 L3 0"
      /><path style="fill:none;" d="M0 -3 L0 3"
    /></g
    ><g style="stroke-linecap:butt; font-size:18px; fill:lime; text-rendering:geometricPrecision; font-family:sans-serif; shape-rendering:crispEdges; stroke-dasharray:11,5; stroke:lime;"
    ><path style="fill:none;" d="M102.0688 88.21 L124.2063 88.21 L146.3438 88.21"
      /><path d="M102.0688 73.61 L124.2063 73.61 L146.3438 73.61" style="fill:none; stroke-dasharray:none; stroke:red;"
    /></g
    ><g transform="translate(102.0688,73.61)" style="font-size:18px; stroke-linecap:butt; fill:red; text-rendering:geometricPrecision; font-family:sans-serif; stroke:red;"
    ><path style="fill:none;" d="M-3 0 L3 0"
      /><path style="fill:none;" d="M0 -3 L0 3"
      /><path style="fill:none;" d="M-2 -2 L2 2"
      /><path style="fill:none;" d="M-2 2 L2 -2"
    /></g
    ><g transform="translate(124.2063,73.61)" style="font-size:18px; stroke-linecap:butt; fill:red; text-rendering:geometricPrecision; font-family:sans-serif; stroke:red;"
    ><path style="fill:none;" d="M-3 0 L3 0"
      /><path style="fill:none;" d="M0 -3 L0 3"
      /><path style="fill:none;" d="M-2 -2 L2 2"
      /><path style="fill:none;" d="M-2 2 L2 -2"
    /></g
    ><g transform="translate(146.3438,73.61)" style="font-size:18px; stroke-linecap:butt; fill:red; text-rendering:geometricPrecision; font-family:sans-serif; stroke:red;"
    ><path style="fill:none;" d="M-3 0 L3 0"
      /><path style="fill:none;" d="M0 -3 L0 3"
      /><path style="fill:none;" d="M-2 -2 L2 2"
      /><path style="fill:none;" d="M-2 2 L2 -2"
    /></g
    ><g transform="translate(151.8781,64.31)" style="stroke-linecap:butt; font-size:18px; fill:rgb(204,204,204); text-rendering:geometricPrecision; font-family:sans-serif; stroke-linejoin:bevel; stroke:rgb(204,204,204); stroke-width:0;"
    ><rect x="0" width="56" height="77" y="0" style="stroke:none;"
      /><text x="1.4062" y="11.2822" style="fill:black; font-size:10px; stroke:none;" xml:space="preserve"
      >apple</text
      ><text x="1.7344" y="26.2822" style="fill:black; font-size:10px; stroke:none;" xml:space="preserve"
      >teddybear</text
      ><text x="1.4531" y="41.2822" style="fill:black; font-size:10px; stroke:none;" xml:space="preserve"
      >salt</text
      ><text x="1.7344" y="56.2822" style="fill:black; font-size:10px; stroke:none;" xml:space="preserve"
      >trucktoy</text
      ><text x="1.7031" y="71.2822" style="fill:black; font-size:10px; stroke:none;" xml:space="preserve"
      >vase</text
    ></g
    ><g transform="translate(130,24)" style="font-size:18px; stroke-linecap:butt; text-rendering:geometricPrecision; font-family:sans-serif; stroke-linejoin:bevel; stroke-width:0;"
    ><text x="1.8594" xml:space="preserve" y="18.708" style="stroke:none;"
      >Activities on Total num of saccades = 14</text
    ></g
  ></g
></svg
>
